…
    ## Rows: 3,220
    ## Columns: 6
    ## $ Geography                              <chr> "0500000US01001", "0500000US010…
    ## $ `Geographic Area Name`                 <chr> "Autauga County, Alabama", "Bal…
    ## $ `Estimate!!Total`                      <dbl> 55200, 208107, 25782, 22527, 57…
    ## $ `Annotation of Estimate!!Total`        <chr> "null", "null", "null", "null",…
    ## $ `Margin of Error!!Total`               <chr> "*****", "*****", "*****", "***…
    ## $ `Annotation of Margin of Error!!Total` <chr> "*****", "*****", "*****", "***…

``` r
df_pop
```

    ## # A tibble: 3,220 × 6
    ##    Geography      `Geographic Area Name`   Estimate!!T…¹ Annot…² Margi…³ Annot…⁴
    ##    <chr>          <chr>                            <dbl> <chr>   <chr>   <chr>  
    ##  1 0500000US01001 Autauga County, Alabama          55200 null    *****   *****  
    ##  2 0500000US01003 Baldwin County, Alabama         208107 null    *****   *****  
    ##  3 0500000US01005 Barbour County, Alabama          25782 null    *****   *****  
    ##  4 0500000US01007 Bibb County, Alabama             22527 null    *****   *****  
    ##  5 0500000US01009 Blount County, Alabama           57645 null    *****   *****  
    ##  6 0500000US01011 Bullock County, Alabama          10352 null    *****   *****  
    ##  7 0500000US01013 Butler County, Alabama           20025 null    *****   *****  
    ##  8 0500000US01015 Calhoun County, Alabama         115098 null    *****   *****  
    ##  9 0500000US01017 Chambers County, Alabama         33826 null    *****   *****  
    ## 10 0500000US01019 Cherokee County, Alabama         25853 null    *****   *****  
    ## # … with 3,210 more rows, and abbreviated variable names ¹​`Estimate!!Total`,
    ## #   ²​`Annotation of Estimate!!Total`, ³​`Margin of Error!!Total`,
    ## #   ⁴​`Annotation of Margin of Error!!Total`
…
    ## Rows: 2502832 Columns: 6
    ## ── Column specification ────────────────────────────────────────────────────────
    ## Delimiter: ","
    ## chr  (3): county, state, fips
    ## dbl  (2): cases, deaths
    ## date (1): date
    ## 
    ## ℹ Use `spec()` to retrieve the full column specification for this data.
    ## ℹ Specify the column types or set `show_col_types = FALSE` to quiet this message.

``` r
df_covid
```

    ## # A tibble: 2,502,832 × 6
    ##    date       county      state      fips  cases deaths
    ##    <date>     <chr>       <chr>      <chr> <dbl>  <dbl>
    ##  1 2020-01-21 Snohomish   Washington 53061     1      0
    ##  2 2020-01-22 Snohomish   Washington 53061     1      0
    ##  3 2020-01-23 Snohomish   Washington 53061     1      0
    ##  4 2020-01-24 Cook        Illinois   17031     1      0
    ##  5 2020-01-24 Snohomish   Washington 53061     1      0
    ##  6 2020-01-25 Orange      California 06059     1      0
    ##  7 2020-01-25 Cook        Illinois   17031     1      0
    ##  8 2020-01-25 Snohomish   Washington 53061     1      0
    ##  9 2020-01-26 Maricopa    Arizona    04013     1      0
    ## 10 2020-01-26 Los Angeles California 06037     1      0
    ## # … with 2,502,822 more rows
…
``` r
## TASK: Create a `fips` column by extracting the county code
df_q3 <- 
  df_pop %>% 
  separate(
    col = Geography,
    into = c("Geography", "fips"),
    sep = -5
  )

df_q3  
```

    ## # A tibble: 3,220 × 7
    ##    Geography fips  `Geographic Area Name`   Estimate!!…¹ Annot…² Margi…³ Annot…⁴
    ##    <chr>     <chr> <chr>                           <dbl> <chr>   <chr>   <chr>  
    ##  1 0500000US 01001 Autauga County, Alabama         55200 null    *****   *****  
    ##  2 0500000US 01003 Baldwin County, Alabama        208107 null    *****   *****  
    ##  3 0500000US 01005 Barbour County, Alabama         25782 null    *****   *****  
    ##  4 0500000US 01007 Bibb County, Alabama            22527 null    *****   *****  
    ##  5 0500000US 01009 Blount County, Alabama          57645 null    *****   *****  
    ##  6 0500000US 01011 Bullock County, Alabama         10352 null    *****   *****  
    ##  7 0500000US 01013 Butler County, Alabama          20025 null    *****   *****  
    ##  8 0500000US 01015 Calhoun County, Alabama        115098 null    *****   *****  
    ##  9 0500000US 01017 Chambers County, Alabama        33826 null    *****   *****  
    ## 10 0500000US 01019 Cherokee County, Alabama        25853 null    *****   *****  
    ## # … with 3,210 more rows, and abbreviated variable names ¹​`Estimate!!Total`,
    ## #   ²​`Annotation of Estimate!!Total`, ³​`Margin of Error!!Total`,
    ## #   ⁴​`Annotation of Margin of Error!!Total`
…
    ## [1] "Very good!"

### **q4** Join `df_covid` with `df_q3` by the `fips` column. Use the proper type of join to preserve *only* the rows in `df_covid`.

``` r
## TASK: Join df_covid and df_q3 by fips.
df_q4 <- 
  df_covid %>% 
  left_join(df_q3, by = "fips")
df_q4
```

    ## # A tibble: 2,502,832 × 12
    ##    date       county    state fips  cases deaths Geogr…¹ Geogr…² Estim…³ Annot…⁴
    ##    <date>     <chr>     <chr> <chr> <dbl>  <dbl> <chr>   <chr>     <dbl> <chr>  
    ##  1 2020-01-21 Snohomish Wash… 53061     1      0 050000… Snohom…  7.87e5 null   
    ##  2 2020-01-22 Snohomish Wash… 53061     1      0 050000… Snohom…  7.87e5 null   
    ##  3 2020-01-23 Snohomish Wash… 53061     1      0 050000… Snohom…  7.87e5 null   
    ##  4 2020-01-24 Cook      Illi… 17031     1      0 050000… Cook C…  5.22e6 null   
    ##  5 2020-01-24 Snohomish Wash… 53061     1      0 050000… Snohom…  7.87e5 null   
    ##  6 2020-01-25 Orange    Cali… 06059     1      0 050000… Orange…  3.16e6 null   
    ##  7 2020-01-25 Cook      Illi… 17031     1      0 050000… Cook C…  5.22e6 null   
    ##  8 2020-01-25 Snohomish Wash… 53061     1      0 050000… Snohom…  7.87e5 null   
    ##  9 2020-01-26 Maricopa  Ariz… 04013     1      0 050000… Marico…  4.25e6 null   
    ## 10 2020-01-26 Los Ange… Cali… 06037     1      0 050000… Los An…  1.01e7 null   
    ## # … with 2,502,822 more rows, 2 more variables: `Margin of Error!!Total` <chr>,
    ## #   `Annotation of Margin of Error!!Total` <chr>, and abbreviated variable
    ## #   names ¹​Geography, ²​`Geographic Area Name`, ³​`Estimate!!Total`,
    ## #   ⁴​`Annotation of Estimate!!Total`
…
df_data
```

    ## # A tibble: 2,502,832 × 7
    ##    date       county      state      fips  cases deaths population
    ##    <date>     <chr>       <chr>      <chr> <dbl>  <dbl>      <dbl>
    ##  1 2020-01-21 Snohomish   Washington 53061     1      0     786620
    ##  2 2020-01-22 Snohomish   Washington 53061     1      0     786620
    ##  3 2020-01-23 Snohomish   Washington 53061     1      0     786620
    ##  4 2020-01-24 Cook        Illinois   17031     1      0    5223719
    ##  5 2020-01-24 Snohomish   Washington 53061     1      0     786620
    ##  6 2020-01-25 Orange      California 06059     1      0    3164182
    ##  7 2020-01-25 Cook        Illinois   17031     1      0    5223719
    ##  8 2020-01-25 Snohomish   Washington 53061     1      0     786620
    ##  9 2020-01-26 Maricopa    Arizona    04013     1      0    4253913
    ## 10 2020-01-26 Los Angeles California 06037     1      0   10098052
    ## # … with 2,502,822 more rows
…
### **q5** Use the `population` estimates in `df_data` to normalize `cases` and `deaths` to produce per 100,000 counts \[3\]. Store these values in the columns `cases_per100k` and `deaths_per100k`.

``` r
## TASK: Normalize cases and deaths
df_normalized <-
  df_data %>% 
  mutate(
    cases_per100k = cases / population * 100000, 
    deaths_per100k = deaths / population * 100000
    )
df_normalized
```

    ## # A tibble: 2,502,832 × 9
    ##    date       county      state      fips  cases deaths popula…¹ cases…² death…³
    ##    <date>     <chr>       <chr>      <chr> <dbl>  <dbl>    <dbl>   <dbl>   <dbl>
    ##  1 2020-01-21 Snohomish   Washington 53061     1      0   786620 0.127         0
    ##  2 2020-01-22 Snohomish   Washington 53061     1      0   786620 0.127         0
    ##  3 2020-01-23 Snohomish   Washington 53061     1      0   786620 0.127         0
    ##  4 2020-01-24 Cook        Illinois   17031     1      0  5223719 0.0191        0
    ##  5 2020-01-24 Snohomish   Washington 53061     1      0   786620 0.127         0
    ##  6 2020-01-25 Orange      California 06059     1      0  3164182 0.0316        0
    ##  7 2020-01-25 Cook        Illinois   17031     1      0  5223719 0.0191        0
    ##  8 2020-01-25 Snohomish   Washington 53061     1      0   786620 0.127         0
    ##  9 2020-01-26 Maricopa    Arizona    04013     1      0  4253913 0.0235        0
    ## 10 2020-01-26 Los Angeles California 06037     1      0 10098052 0.00990       0
    ## # … with 2,502,822 more rows, and abbreviated variable names ¹​population,
    ## #   ²​cases_per100k, ³​deaths_per100k
…
``` r
bycounty_deaths_per100k
```

    ## # A tibble: 1,932 × 3
    ## # Groups:   county [1,932]
    ##    county    max_deaths_per100k population
    ##    <chr>                  <dbl>      <dbl>
    ##  1 Abbeville              284.      24657 
    ##  2 Acadia                 470.      62568 
    ##  3 Accomack               324.      32742 
    ##  4 Ada                    229.     446052 
    ##  5 Adair                  716.      18423.
    ##  6 Adams                  531.      72056.
    ##  7 Addison                 48.7     36939 
    ##  8 Adjuntas                NA       18181 
    ##  9 Aguada                  NA       38643 
    ## 10 Aguadilla               NA       54166 
    ## # … with 1,922 more rows
…
