…
    ## Rows: 3220 Columns: 6
    ## ── Column specification ────────────────────────────────────────────────────────
    ## Delimiter: ","
    ## chr (5): id, geographic_area_name, population_moe, X5, X6
    ## dbl (1): population_estimate
    ## 
    ## ℹ Use `spec()` to retrieve the full column specification for this data.
    ## ℹ Specify the column types or set `show_col_types = FALSE` to quiet this message.

``` r
df_pop
```

    ## # A tibble: 3,220 × 6
    ##    id             geographic_area_name     population_esti…¹ popul…² X5    X6   
    ##    <chr>          <chr>                                <dbl> <chr>   <chr> <chr>
    ##  1 0500000US01001 Autauga County, Alabama              55200 null    ***** *****
    ##  2 0500000US01003 Baldwin County, Alabama             208107 null    ***** *****
    ##  3 0500000US01005 Barbour County, Alabama              25782 null    ***** *****
    ##  4 0500000US01007 Bibb County, Alabama                 22527 null    ***** *****
    ##  5 0500000US01009 Blount County, Alabama               57645 null    ***** *****
    ##  6 0500000US01011 Bullock County, Alabama              10352 null    ***** *****
    ##  7 0500000US01013 Butler County, Alabama               20025 null    ***** *****
    ##  8 0500000US01015 Calhoun County, Alabama             115098 null    ***** *****
    ##  9 0500000US01017 Chambers County, Alabama             33826 null    ***** *****
    ## 10 0500000US01019 Cherokee County, Alabama             25853 null    ***** *****
    ## # … with 3,210 more rows, and abbreviated variable names ¹​population_estimate,
    ## #   ²​population_moe
…
    ## Rows: 3220 Columns: 483
    ## ── Column specification ────────────────────────────────────────────────────────
    ## Delimiter: ","
    ## chr (306): Geography, Geographic Area Name, Annotation of Margin of Error!!N...
    ## dbl (176): Estimate!!Number!!HOUSEHOLD INCOME BY RACE AND HISPANIC OR LATINO...
    ## lgl   (1): ...483
    ## 
    ## ℹ Use `spec()` to retrieve the full column specification for this data.
    ## ℹ Specify the column types or set `show_col_types = FALSE` to quiet this message.

``` r
df_income
```

    ## # A tibble: 3,220 × 243
    ##    id    geogr…¹ Estim…² Margi…³ Estim…⁴ Margi…⁵ Estim…⁶ Margi…⁷ Estim…⁸ Margi…⁹
    ##    <chr> <chr>     <dbl>   <dbl>   <dbl>   <dbl>   <dbl>   <dbl>   <dbl>   <dbl>
    ##  1 0500… Autaug…   21115     383   16585     363    4085     205      34      33
    ##  2 0500… Baldwi…   78622    1183   69544    1042    6425     500     460     171
    ##  3 0500… Barbou…    9186     280    4729     211    4135     248       9      16
    ##  4 0500… Bibb C…    6840     321    5588     346    1172     200       0      22
    ##  5 0500… Blount…   20600     396   20054     417     190      98      24      27
    ##  6 0500… Bulloc…    3609     196     881     119    2681     212      44      52
    ##  7 0500… Butler…    6708     274    3821     173    2752     207       2       4
    ##  8 0500… Calhou…   45033     683   33820     559    9514     435     152      64
    ##  9 0500… Chambe…   13516     372    7953     296    5268     235      54      42
    ## 10 0500… Cherok…   10606     370    9953     356     477      90      33      32
    ## # … with 3,210 more rows, 233 more variables:
    ## #   `Estimate!!Number!!HOUSEHOLD INCOME BY RACE AND HISPANIC OR LATINO ORIGIN OF HOUSEHOLDER!!Households!!One race--!!Asian` <dbl>,
    ## #   `Margin of Error!!Number MOE!!HOUSEHOLD INCOME BY RACE AND HISPANIC OR LATINO ORIGIN OF HOUSEHOLDER!!Households!!One race--!!Asian` <dbl>,
    ## #   `Estimate!!Number!!HOUSEHOLD INCOME BY RACE AND HISPANIC OR LATINO ORIGIN OF HOUSEHOLDER!!Households!!One race--!!Native Hawaiian and Other Pacific Islander` <dbl>,
    ## #   `Margin of Error!!Number MOE!!HOUSEHOLD INCOME BY RACE AND HISPANIC OR LATINO ORIGIN OF HOUSEHOLDER!!Households!!One race--!!Native Hawaiian and Other Pacific Islander` <dbl>,
    ## #   `Estimate!!Number!!HOUSEHOLD INCOME BY RACE AND HISPANIC OR LATINO ORIGIN OF HOUSEHOLDER!!Households!!One race--!!Some other race` <dbl>,
    ## #   `Margin of Error!!Number MOE!!HOUSEHOLD INCOME BY RACE AND HISPANIC OR LATINO ORIGIN OF HOUSEHOLDER!!Households!!One race--!!Some other race` <dbl>, …
…
    ## Warning in mask$eval_all_mutate(quo): NAs introduced by coercion

    ## Rows: 16,100
    ## Columns: 5
    ## $ id                   <chr> "0500000US01001", "0500000US01001", "0500000US010…
    ## $ geographic_area_name <chr> "Autauga County, Alabama", "Autauga County, Alaba…
    ## $ category             <chr> "2-person families", "3-person families", "4-pers…
    ## $ income_estimate      <dbl> 64947, 80172, 85455, 88601, 103787, 63975, 79390,…
    ## $ income_moe           <dbl> 6663, 14181, 10692, 20739, 12387, 2297, 8851, 519…

``` r
df_q3
```

    ## # A tibble: 16,100 × 5
    ##    id             geographic_area_name    category          income_est…¹ incom…²
    ##    <chr>          <chr>                   <chr>                    <dbl>   <dbl>
    ##  1 0500000US01001 Autauga County, Alabama 2-person families        64947    6663
    ##  2 0500000US01001 Autauga County, Alabama 3-person families        80172   14181
    ##  3 0500000US01001 Autauga County, Alabama 4-person families        85455   10692
    ##  4 0500000US01001 Autauga County, Alabama 5-person families        88601   20739
    ##  5 0500000US01001 Autauga County, Alabama 6-person families       103787   12387
    ##  6 0500000US01003 Baldwin County, Alabama 2-person families        63975    2297
    ##  7 0500000US01003 Baldwin County, Alabama 3-person families        79390    8851
    ##  8 0500000US01003 Baldwin County, Alabama 4-person families        88458    5199
    ##  9 0500000US01003 Baldwin County, Alabama 5-person families        91259    7011
    ## 10 0500000US01003 Baldwin County, Alabama 6-person families        69609   23175
    ## # … with 16,090 more rows, and abbreviated variable names ¹​income_estimate,
    ## #   ²​income_moe
…
### **q4** Convert the margin of error to standard error. Additionally, compute a 99% confidence interval on income, and normalize the standard error to `income_CV = income_SE / income_estimate`. Provide these columns with the names `income_SE, income_lo, income_hi, income_CV`.

``` r
q99 = qnorm( 1 - (1 - 0.99) / 2 )
df_q4 <-
  df_q3 %>%
  mutate(income_SE = income_moe/1.645,
         income_lo = income_estimate - q99 * income_SE, 
         income_hi = income_estimate + q99 * income_SE,
         income_CV = income_SE / income_estimate
         )
df_q4
```

    ## # A tibble: 16,100 × 9
    ##    id            geogr…¹ categ…² incom…³ incom…⁴ incom…⁵ incom…⁶ incom…⁷ incom…⁸
    ##    <chr>         <chr>   <chr>     <dbl>   <dbl>   <dbl>   <dbl>   <dbl>   <dbl>
    ##  1 0500000US010… Autaug… 2-pers…   64947    6663   4050.  54514.  75380.  0.0624
    ##  2 0500000US010… Autaug… 3-pers…   80172   14181   8621.  57967. 102377.  0.108 
    ##  3 0500000US010… Autaug… 4-pers…   85455   10692   6500.  68713. 102197.  0.0761
    ##  4 0500000US010… Autaug… 5-pers…   88601   20739  12607.  56127. 121075.  0.142 
    ##  5 0500000US010… Autaug… 6-pers…  103787   12387   7530.  84391. 123183.  0.0726
    ##  6 0500000US010… Baldwi… 2-pers…   63975    2297   1396.  60378.  67572.  0.0218
    ##  7 0500000US010… Baldwi… 3-pers…   79390    8851   5381.  65531.  93249.  0.0678
    ##  8 0500000US010… Baldwi… 4-pers…   88458    5199   3160.  80317.  96599.  0.0357
    ##  9 0500000US010… Baldwi… 5-pers…   91259    7011   4262.  80281. 102237.  0.0467
    ## 10 0500000US010… Baldwi… 6-pers…   69609   23175  14088.  33320. 105898.  0.202 
    ## # … with 16,090 more rows, and abbreviated variable names
    ## #   ¹​geographic_area_name, ²​category, ³​income_estimate, ⁴​income_moe,
    ## #   ⁵​income_SE, ⁶​income_lo, ⁷​income_hi, ⁸​income_CV
…
One last wrangling step: We need to join the two datasets so we can
compare population with income.

### **q5** Join `df_q4` and `df_pop`.

``` r
## TODO: Join df_q4 and df_pop by the appropriate column
df_data <-
  df_q4 %>% 
  left_join(df_pop, by = c("id", "geographic_area_name"))
df_data
```

    ## # A tibble: 16,100 × 13
    ##    id    geogr…¹ categ…² incom…³ incom…⁴ incom…⁵ incom…⁶ incom…⁷ incom…⁸ popul…⁹
    ##    <chr> <chr>   <chr>     <dbl>   <dbl>   <dbl>   <dbl>   <dbl>   <dbl>   <dbl>
    ##  1 0500… Autaug… 2-pers…   64947    6663   4050.  54514.  75380.  0.0624   55200
    ##  2 0500… Autaug… 3-pers…   80172   14181   8621.  57967. 102377.  0.108    55200
    ##  3 0500… Autaug… 4-pers…   85455   10692   6500.  68713. 102197.  0.0761   55200
    ##  4 0500… Autaug… 5-pers…   88601   20739  12607.  56127. 121075.  0.142    55200
    ##  5 0500… Autaug… 6-pers…  103787   12387   7530.  84391. 123183.  0.0726   55200
    ##  6 0500… Baldwi… 2-pers…   63975    2297   1396.  60378.  67572.  0.0218  208107
    ##  7 0500… Baldwi… 3-pers…   79390    8851   5381.  65531.  93249.  0.0678  208107
    ##  8 0500… Baldwi… 4-pers…   88458    5199   3160.  80317.  96599.  0.0357  208107
    ##  9 0500… Baldwi… 5-pers…   91259    7011   4262.  80281. 102237.  0.0467  208107
    ## 10 0500… Baldwi… 6-pers…   69609   23175  14088.  33320. 105898.  0.202   208107
    ## # … with 16,090 more rows, 3 more variables: population_moe <chr>, X5 <chr>,
    ## #   X6 <chr>, and abbreviated variable names ¹​geographic_area_name, ²​category,
    ## #   ³​income_estimate, ⁴​income_moe, ⁵​income_SE, ⁶​income_lo, ⁷​income_hi,
    ## #   ⁸​income_CV, ⁹​population_estimate
…
``` r
df_q8
```

    ## # A tibble: 16,100 × 19
    ##    id    geogr…¹ categ…² perce…³ perce…⁴ perce…⁵ perce…⁶ perce…⁷ perce…⁸ incom…⁹
    ##    <chr> <chr>   <chr>     <dbl>   <dbl>   <dbl>   <dbl>   <dbl>   <dbl>   <dbl>
    ##  1 0500… Autaug… 2-pers…    45.6     2.6   1.58    41.5    49.7   0.0347   64947
    ##  2 0500… Autaug… 3-pers…    22.1     2.7   1.64    17.9    26.3   0.0743   80172
    ##  3 0500… Autaug… 4-pers…    18.5     2.5   1.52    14.6    22.4   0.0821   85455
    ##  4 0500… Autaug… 5-pers…     9.4     1.8   1.09     6.58   12.2   0.116    88601
    ##  5 0500… Autaug… 6-pers…     3.4     1.1   0.669    1.68    5.12  0.197   103787
    ##  6 0500… Baldwi… 2-pers…    55.9     1.6   0.973   53.4    58.4   0.0174   63975
    ##  7 0500… Baldwi… 3-pers…    19.2     1.4   0.851   17.0    21.4   0.0443   79390
    ##  8 0500… Baldwi… 4-pers…    14.5     1.3   0.790   12.5    16.5   0.0545   88458
    ##  9 0500… Baldwi… 5-pers…     7.3     0.9   0.547    5.89    8.71  0.0749   91259
    ## 10 0500… Baldwi… 6-pers…     2.3     0.6   0.365    1.36    3.24  0.159    69609
    ## # … with 16,090 more rows, 9 more variables: income_moe <dbl>, income_SE <dbl>,
    ## #   income_lo <dbl>, income_hi <dbl>, income_CV <dbl>,
    ## #   population_estimate <dbl>, population_moe <chr>, X5 <chr>, X6 <chr>, and
    ## #   abbreviated variable names ¹​geographic_area_name, ²​category,
    ## #   ³​percent_estimate, ⁴​percent_moe, ⁵​percent_SE, ⁶​percent_lo, ⁷​percent_hi,
    ## #   ⁸​percent_CV, ⁹​income_estimate
…
