…
``` r
# #df_data %>% 
# semi_join(df_data$subject_race,df_data$raw_Race)
# 
# df_data %>% 
# anti_join(subject_race,raw_Race)
df_data %>% 
  filter(raw_Race == "None - for no operator present citations only")
```

    ## # A tibble: 17,017 × 24
    ##    raw_row_nu…¹ date       locat…² count…³ subje…⁴ subje…⁵ subje…⁶ type  arres…⁷
    ##    <chr>        <date>     <chr>   <chr>     <int> <fct>   <fct>   <fct> <lgl>  
    ##  1 2406         2007-06-12 MILLBU… Worces…      NA unknown <NA>    vehi… FALSE  
    ##  2 2407         2007-06-12 MILLBU… Worces…      NA unknown <NA>    vehi… FALSE  
    ##  3 2408         2007-06-12 MILLBU… Worces…      NA unknown <NA>    vehi… FALSE  
    ##  4 2409         2007-06-12 MILLBU… Worces…      NA unknown <NA>    vehi… FALSE  
    ##  5 2416         2007-06-12 MILLBU… Worces…      NA unknown <NA>    vehi… FALSE  
    ##  6 2417         2007-06-12 MILLBU… Worces…      NA unknown <NA>    vehi… FALSE  
    ##  7 2418         2007-06-13 MILLBU… Worces…      NA unknown <NA>    vehi… FALSE  
    ##  8 4062         2007-05-30 WESTBO… Worces…      NA unknown <NA>    vehi… FALSE  
    ##  9 4065         2007-05-30 WESTBO… Worces…      NA unknown <NA>    vehi… FALSE  
    ## 10 4067         2007-05-30 WESTBO… Worces…      NA unknown <NA>    vehi… FALSE  
    ## # … with 17,007 more rows, 15 more variables: citation_issued <lgl>,
    ## #   warning_issued <lgl>, outcome <fct>, contraband_found <lgl>,
    ## #   contraband_drugs <lgl>, contraband_weapons <lgl>, contraband_alcohol <lgl>,
    ## #   contraband_other <lgl>, frisk_performed <lgl>, search_conducted <lgl>,
    ## #   search_basis <fct>, reason_for_stop <chr>, vehicle_type <chr>,
    ## #   vehicle_registration_state <fct>, raw_Race <chr>, and abbreviated variable
    ## #   names ¹​raw_row_number, ²​location, ³​county_name, ⁴​subject_age, …
…
df_race_arrest_rate <-
  df_data %>%
    group_by(subject_race) %>% 
    summarise(
      n = n(),
      n_arrest_made = sum(arrest_made, na.rm = TRUE)
    ) %>% 
  mutate(arrest_rate = n_arrest_made/n)

df_age_arrest_rate
```

    ## # A tibble: 86 × 4
    ##    subject_age     n n_arrest_made arrest_rate
    ##          <int> <int>         <int>       <dbl>
    ##  1          10   398             1     0.00251
    ##  2          11   397             1     0.00252
    ##  3          12   262             3     0.0115 
    ##  4          13   206             6     0.0291 
    ##  5          14   306            15     0.0490 
    ##  6          15   474            44     0.0928 
    ##  7          16  2049           105     0.0512 
    ##  8          17 17513           338     0.0193 
    ##  9          18 48909           940     0.0192 
    ## 10          19 83065          1667     0.0201 
    ## # … with 76 more rows
…
``` r
df_data %>%

  count(contraband_drugs, contraband_weapons, contraband_alcohol, contraband_other, subject_race, arrest_made,subject_sex)
```

    ## # A tibble: 355 × 8
    ##    contraband_drugs contraband_w…¹ contr…² contr…³ subje…⁴ arres…⁵ subje…⁶     n
    ##    <lgl>            <lgl>          <lgl>   <lgl>   <fct>   <lgl>   <fct>   <int>
    ##  1 FALSE            FALSE          FALSE   FALSE   asian/… FALSE   male      617
    ##  2 FALSE            FALSE          FALSE   FALSE   asian/… FALSE   female    140
    ##  3 FALSE            FALSE          FALSE   FALSE   asian/… TRUE    male      249
    ##  4 FALSE            FALSE          FALSE   FALSE   asian/… TRUE    female     27
    ##  5 FALSE            FALSE          FALSE   FALSE   black   FALSE   male     2694
    ##  6 FALSE            FALSE          FALSE   FALSE   black   FALSE   female    551
    ##  7 FALSE            FALSE          FALSE   FALSE   black   TRUE    male      985
    ##  8 FALSE            FALSE          FALSE   FALSE   black   TRUE    female    117
    ##  9 FALSE            FALSE          FALSE   FALSE   black   NA      male        1
    ## 10 FALSE            FALSE          FALSE   FALSE   hispan… FALSE   male     3712
    ## # … with 345 more rows, and abbreviated variable names ¹​contraband_weapons,
    ## #   ²​contraband_alcohol, ³​contraband_other, ⁴​subject_race, ⁵​arrest_made,
    ## #   ⁶​subject_sex
…
df_data %>% 
      filter(
        # !is.na(arrest_made),
        # #!is.na(contraband_found),
        # !is.na(contraband_drugs),
        # !is.na(contraband_weapons),
        # !is.na(contraband_alcohol),
        # !is.na(contraband_other),
        #!is.na(frisk_performed),
        subject_race %in% c("white", "black", "hispanic")
      ) %>%
  count(contraband_drugs, contraband_weapons, contraband_alcohol, contraband_other, subject_race, arrest_made,subject_sex)
```

    ## # A tibble: 219 × 8
    ##    contraband_drugs contraband_w…¹ contr…² contr…³ subje…⁴ arres…⁵ subje…⁶     n
    ##    <lgl>            <lgl>          <lgl>   <lgl>   <fct>   <lgl>   <fct>   <int>
    ##  1 FALSE            FALSE          FALSE   FALSE   black   FALSE   male     2694
    ##  2 FALSE            FALSE          FALSE   FALSE   black   FALSE   female    551
    ##  3 FALSE            FALSE          FALSE   FALSE   black   TRUE    male      985
    ##  4 FALSE            FALSE          FALSE   FALSE   black   TRUE    female    117
    ##  5 FALSE            FALSE          FALSE   FALSE   black   NA      male        1
    ##  6 FALSE            FALSE          FALSE   FALSE   hispan… FALSE   male     3712
    ##  7 FALSE            FALSE          FALSE   FALSE   hispan… FALSE   female    572
    ##  8 FALSE            FALSE          FALSE   FALSE   hispan… FALSE   <NA>        2
    ##  9 FALSE            FALSE          FALSE   FALSE   hispan… TRUE    male     1635
    ## 10 FALSE            FALSE          FALSE   FALSE   hispan… TRUE    female    151
    ## # … with 209 more rows, and abbreviated variable names ¹​contraband_weapons,
    ## #   ²​contraband_alcohol, ³​contraband_other, ⁴​subject_race, ⁵​arrest_made,
    ## #   ⁶​subject_sex
…
df_data %>%
      filter(
        !is.na(arrest_made),
        #!is.na(contraband_found),
        !is.na(contraband_drugs),
        !is.na(contraband_weapons),
        !is.na(contraband_alcohol),
        !is.na(contraband_other),
        #!is.na(frisk_performed),
        subject_race %in% c("white", "black", "hispanic")
      ) %>%
  count(contraband_drugs, contraband_weapons, contraband_alcohol, contraband_other, subject_race, arrest_made,subject_sex)
```

    ## # A tibble: 172 × 8
    ##    contraband_drugs contraband_w…¹ contr…² contr…³ subje…⁴ arres…⁵ subje…⁶     n
    ##    <lgl>            <lgl>          <lgl>   <lgl>   <fct>   <lgl>   <fct>   <int>
    ##  1 FALSE            FALSE          FALSE   FALSE   black   FALSE   male     2694
    ##  2 FALSE            FALSE          FALSE   FALSE   black   FALSE   female    551
    ##  3 FALSE            FALSE          FALSE   FALSE   black   TRUE    male      985
    ##  4 FALSE            FALSE          FALSE   FALSE   black   TRUE    female    117
    ##  5 FALSE            FALSE          FALSE   FALSE   hispan… FALSE   male     3712
    ##  6 FALSE            FALSE          FALSE   FALSE   hispan… FALSE   female    572
    ##  7 FALSE            FALSE          FALSE   FALSE   hispan… FALSE   <NA>        2
    ##  8 FALSE            FALSE          FALSE   FALSE   hispan… TRUE    male     1635
    ##  9 FALSE            FALSE          FALSE   FALSE   hispan… TRUE    female    151
    ## 10 FALSE            FALSE          FALSE   FALSE   hispan… TRUE    <NA>        2
    ## # … with 162 more rows, and abbreviated variable names ¹​contraband_weapons,
    ## #   ²​contraband_alcohol, ³​contraband_other, ⁴​subject_race, ⁵​arrest_made,
    ## #   ⁶​subject_sex
…
  ) %>%
      filter(
        !is.na(arrest_made),
        #!is.na(contraband_found),
        !is.na(contraband_drugs),
        !is.na(contraband_weapons),
        !is.na(contraband_alcohol),
        !is.na(contraband_other),
        #!is.na(frisk_performed),
        subject_race %in% c("white", "black", "hispanic")
      ) %>%
  count(contraband_drugs, contraband_weapons, contraband_alcohol, contraband_other, subject_race, arrest_made,subject_sex)
```

    ## # A tibble: 175 × 8
    ##    contraband_drugs contraband_…¹ contr…² contr…³ subje…⁴ arres…⁵ subje…⁶      n
    ##    <lgl>            <lgl>         <lgl>   <lgl>   <fct>   <lgl>   <fct>    <int>
    ##  1 FALSE            FALSE         FALSE   FALSE   black   FALSE   male    241506
    ##  2 FALSE            FALSE         FALSE   FALSE   black   FALSE   female   94275
    ##  3 FALSE            FALSE         FALSE   FALSE   black   FALSE   <NA>        90
    ##  4 FALSE            FALSE         FALSE   FALSE   black   TRUE    male      9263
    ##  5 FALSE            FALSE         FALSE   FALSE   black   TRUE    female    1271
    ##  6 FALSE            FALSE         FALSE   FALSE   black   TRUE    <NA>         3
    ##  7 FALSE            FALSE         FALSE   FALSE   hispan… FALSE   male    238463
    ##  8 FALSE            FALSE         FALSE   FALSE   hispan… FALSE   female   76040
    ##  9 FALSE            FALSE         FALSE   FALSE   hispan… FALSE   <NA>       118
    ## 10 FALSE            FALSE         FALSE   FALSE   hispan… TRUE    male     15920
    ## # … with 165 more rows, and abbreviated variable names ¹​contraband_weapons,
    ## #   ²​contraband_alcohol, ³​contraband_other, ⁴​subject_race, ⁵​arrest_made,
    ## #   ⁶​subject_sex
…
